module gitlab.com/DekaFinalProject/schedulelib

go 1.15

require (
	github.com/davecgh/go-spew v1.1.1 // indirect
	github.com/kr/pretty v0.2.1 // indirect
	github.com/kr/text v0.2.0 // indirect
	github.com/mattn/go-sqlite3 v1.14.6
	github.com/pmezard/go-difflib v1.0.0 // indirect
	github.com/stretchr/testify v1.7.0
	gopkg.in/check.v1 v1.0.0-20201130134442-10cb98267c6c // indirect
	gopkg.in/yaml.v3 v3.0.0-20210107192922-496545a6307b // indirect
)
