digraph G {
	3 -> 4[label="6|Упаковка и погрузка товара"]
	0 -> 1[label="1|Производство 100 деталей М1"]
	0 -> 3[label="5|Сборка упаковок 5 шт"]
	1 -> 2[label="2|Производство 500 деталей РТ3"]
	1 -> 2[label="3|Производство 50 корпусов типа Р4"]
	2 -> 3[label="4|Создание крепежных соединений 50 шт"]
}